%!PS-Adobe-3.0
%%Creator: gEDA gschem 1.6.0-20091004-56-g11921dc
%%CreationDate: Sun May 20 17:27:53 2012
%%Title: /home/ecomer/arduino/SainSmart_LCD/sainsmarti2clcd.sch
%%Author: (null)
%%BoundingBox: 0 0 612 792
%%Orientation: Landscape
%%Pages: 1
%%Endcomments
%%BeginProlog
% Prolog for gEDA, define all the functions needed for rendering
% schematics on Postscript devices


% Draw a line from the second coordinate to the first
% x2 y2 x1 y1 width line -
/line {
    setlinewidth
    % pop off first element and moveto
    moveto
    % pop off remaining elements and draw a line segment
    lineto
    % draw it
    stroke
} bind def


% Draw a dot
% x y r dot -
/dot {
    0 360 arc fill
} bind def

% Draw a dot-dashed line, a bunch of lined segments,
% if the array element only has length two, draw a dot.
% [ [x2 y2 x1 y1] [x4 y4 x3 y3] [x5 y5] ... ] width dashed -
/width 0 def
/dashed {
    dup 2.0 div /width exch def
    setlinewidth
    % pop off each line segment and draw it as a dot or as a line
    {
	aload length 2 gt
	{ moveto lineto stroke}
	{ width dot } ifelse
    } forall
} bind def

% Draw an arc segment
% x y r ang1 ang2 width darc -
/darc {
    setlinewidth
    arc stroke
} bind def

% Draw a series of arc segment bits, if the array element only has a single
% element in it, draw a dot.
% [ [sa1 ea1] [sa2 ea2] ... ] x y r width dashedarc -
/x 0 def
/y 0 def
/dashedarc {
    dup /width exch def
    setlinewidth
    /r exch def  
    /y exch def
    /x exch def
    { aload length 1 gt
	{
	    % this element had two angles in it
	    % extract start and stop angles
	    x y r   % drop x y and r onto stack
		    % at this point we have: sa ea x y r
		    % we need                      x y r sa ea
		    % so..
	    5 -2 roll
	    % and add it to the current path, and draw it
	    arc stroke
	} {
	    % this element only had one angle in it, place a
	    % filled dot at the appropriate place
	    % compute center point of the arc using the angle
	    % that is on the top of the stack
	    dup   		% angle angle
	    cos r mul x add 	% angle x
	    exch		% x angle
	    sin r mul y add	% x y
	    width		% x y width/2
	    dot			% draw the dot
	} ifelse
    } forall

    % Now draw it
    stroke
} bind def

% Draw a box
% width height x y linethickness box -
/box {
    setlinewidth
    moveto
    exch dup 0 rlineto	 % w h, h w w 0      -- Draw bottom line
    exch 0 exch rlineto	 % h w, w h 0, w 0 h -- Draw right line 
    neg 0 rlineto	 % w, -w 0           -- Draw Top line
    closepath		 % finish and draw it
    stroke
} bind def			     

% Draw a filled box
% width height x y fbox -
/fbox {
    moveto
    exch dup 0 rlineto	
    exch 0 exch rlineto	
    neg 0 rlineto		
    closepath			
    fill			
} bind def

% Font reincoding utilities

% ISOLatin1Encoding, extended with remaining uncoded glyphs
/ISOLatin1Extended [
    /.notdef /Lslash /lslash /OE /oe /Scaron /scaron /Zcaron /zcaron
    /Ydieresis /trademark /bullet /dagger /daggerdbl /ellipsis /emdash
    /endash /fi /fl /florin /fraction /guilsinglleft /guilsinglright
    /perthousand /quotedblbase /quotedblleft /quotedblright
    /quotesinglbase /quotesingle /.notdef /.notdef /.notdef /space
    /exclam /quotedbl /numbersign /dollar /percent /ampersand
    /quoteright /parenleft /parenright /asterisk /plus /comma /minus
    /period /slash /zero /one /two /three /four /five /six /seven /eight
    /nine /colon /semicolon /less /equal /greater /question /at /A /B /C
    /D /E /F /G /H /I /J /K /L /M /N /O /P /Q /R /S /T /U /V /W /X /Y /Z
    /bracketleft /backslash /bracketright /asciicircum /underscore
    /quoteleft /a /b /c /d /e /f /g /h /i /j /k /l /m /n /o /p /q /r /s
    /t /u /v /w /x /y /z /braceleft /bar /braceright /asciitilde
    /.notdef /.notdef /.notdef /.notdef /.notdef /.notdef /.notdef
    /.notdef /.notdef /.notdef /.notdef /.notdef /.notdef /.notdef
    /.notdef /.notdef /.notdef /dotlessi /grave /acute /circumflex
    /tilde /macron /breve /dotaccent /dieresis /.notdef /ring /cedilla
    /.notdef /hungarumlaut /ogonek /caron /space /exclamdown /cent
    /sterling /currency /yen /brokenbar /section /dieresis /copyright
    /ordfeminine /guillemotleft /logicalnot /hyphen /registered /macron
    /degree /plusminus /twosuperior /threesuperior /acute /mu /paragraph
    /periodcentered /cedilla /onesuperior /ordmasculine /guillemotright
    /onequarter /onehalf /threequarters /questiondown /Agrave /Aacute
    /Acircumflex /Atilde /Adieresis /Aring /AE /Ccedilla /Egrave /Eacute
    /Ecircumflex /Edieresis /Igrave /Iacute /Icircumflex /Idieresis /Eth
    /Ntilde /Ograve /Oacute /Ocircumflex /Otilde /Odieresis /multiply
    /Oslash /Ugrave /Uacute /Ucircumflex /Udieresis /Yacute /Thorn
    /germandbls /agrave /aacute /acircumflex /atilde /adieresis /aring
    /ae /ccedilla /egrave /eacute /ecircumflex /edieresis /igrave
    /iacute /icircumflex /idieresis /eth /ntilde /ograve /oacute
    /ocircumflex /otilde /odieresis /divide /oslash /ugrave /uacute
    /ucircumflex /udieresis /yacute /thorn /ydieresis
] def

% `new-font-name' `encoding-vector' `old-font-name' RE -
/RE {
    findfont
    dup maxlength dict begin {
        1 index /FID ne { def } { pop pop } ifelse
    } forall
    /Encoding exch def
    dup /FontName exch def
    currentdict end definefont pop
} bind def

% Text handling functions, select the font and scale it, then we need
% only to apply the appropriate transformations to get the text
% justified into the right spots.  The bad thing here is that we don't
% do any kerning, so the output may look a bit strange.

% compute the height of one character and return lly and ury
% (char) charheight lly ury
/charheight {
    gsave			% push graphics state
	newpath			% clear current path
	0 0 moveto		% Set current point
	false charpath		% get path
	flattenpath		% flatten path
	pathbbox		% stack = llx lly urx ury
	exch pop		% stack = llx lly ury
	3 -1 roll pop		% stack = lly ury
    grestore			% pop graphics state
} bind def

% compute the height of a string, one character at a time
% (string) stringheight lly ury
/lly 0.0 def
/ury 0.0 def

/stringheight {
    /lly 0.0 def			% initial value of heightmin
    /ury 0.0 def			% initial value of heightmax
    {				% work through string
	( ) dup 0 4 -1 roll put	% create one character string
	charheight		% measure it's height
	dup ury gt {		% if ury gt heightmax
	    /ury exch def	% update with new value
	} {
	    pop			% else discard ury
	} ifelse
	dup lly lt {		% if lly lt heightmin
	    /lly exch def	% update with new value
	} {
	    pop			% else discard lly
	} ifelse
    } forall
    lly ury			% Return the results
} bind def

% calculate the string width taking into account the escapes.
/mystrx 0.0 def
/mystry 0.0 def
/mystresc false def

/mystringwidth {
    /mystrx 0.0 def
    /mystry 0.0 def
    /mystresc false def
    {				% work through string
	% did we process the escape character last?
	mystresc {
	    % last character was escape
	    % handle the escape
	    % is it an _ = 95?
	    dup 95 eq {
		pop  % we don't need the character anymore
		% toggle drawing overbars
		0.0 0.0 % make it like it never happened...
	    } {
		% otherwise measure the character 
		(\\ ) dup 1 4 -1 roll put % count a \ and the character
		stringwidth
	    } ifelse
	    % and reset the flag
	    /mystresc false def
	} {
	    % last character was not escape
	    % is this escape
	    dup 92 eq {
		% yes, escape character, set flag
		/mystresc true def
		pop % drop character
		0.0 0.0 % make like this character has no width and height
	    } {
		( ) dup 0 4 -1 roll put	% create one character string
		stringwidth		% measure it's height/width
	    } ifelse
	} ifelse
	% accumulate x and y movements
	mystry add /mystry exch def
	mystrx add /mystrx exch def
    } forall
    mystrx mystry % drop results on stack
} bind def

% Render a string with overbars
%
/escaped false def
/drawoverbar false def
/fontsize 0.0 def

%string1 string2 append -
/append {
    2 copy length exch length add % find new length
    string dup % string1 string2 string string
    4 2 roll % string string string1 string2
    2 index 0 3 index
    % string string string1 string2 string 0 string1
    putinterval % string string string1 string2
    exch length exch putinterval
} bind def

% If drawoverbar is set, draw a line of the same length as the given string
% string overbarshowline -
/overbarshowline {
    % print overbar if necessary
    stringwidth pop 0
    drawoverbar {
        rlineto
        gsave stroke grestore
    } {
        rmoveto
    } ifelse
} bind def

% Draws overbars for the given string, then shows the string itself
% string overbarshow
/overbarshow {
    /overbarshowacc () def
    /overbarshowtxt () def

    gsave
    fontsize 10.0 div setlinewidth
    0 fontsize rmoveto  % move to (0,overbarheight)

    {				% work through string
	escaped {
	    % the last character was the escape
	    % handle the escape
	    % is it an _ = 95?
	    dup 95 eq {
		pop  % we don't need the character anymore
                overbarshowacc overbarshowline
                % toggle drawing overbars
		/drawoverbar drawoverbar not def

                % Append the contents off the accumulator to the text
                % string we're eventually going to show
                /overbarshowtxt overbarshowtxt overbarshowacc append def

                % clear accumulator
                /overbarshowacc () def
	    } {
                % add to accumulator
                (\\ ) dup 1 4 -1 roll put
                overbarshowacc exch append
                /overbarshowacc exch def
	    } ifelse
	    % and reset the flag
	    /escaped false def
	} {
	    % check for escape character \ = 92
	    dup 92 eq {
		% yes, escape character, set flag
		/escaped true def
		pop % drop character
	    } {
                % add to accumulator
                ( ) dup 0 4 -1 roll put
                overbarshowacc exch append
                /overbarshowacc exch def
	    } ifelse
	} ifelse
    } forall
    % Catch any leftovers
    overbarshowacc overbarshowline
    overbarshowtxt overbarshowacc append

    grestore
    show
} bind def

% 
% hcenter rjustify vcenter vjustify spacing [(line1) (line2) ... ] rot x y size text -
/stringw 0.0 def
/stringh 0.0 def
/spacing 0.0 def
/strings [ ] def
/stringtxt ( ) def
/stringcount 0 def
/rot 0.0 def

/text {
    gsave	        % save state for later
    /drawoverbar false def      % start by not drawing overbars

    dup /fontsize exch def  % save font size for corrections later
    % do font selection 
    /gEDAFont findfont
    exch scalefont
    setfont

    % set up coordinates
    translate           % move origin to given point
    rotate		% rotate so that text is drawn
    0 0 moveto
    dup length /stringcount exch def			% Get number of strings
    /strings exch def     				% save strings
    /spacing exch def
    % do we have more than 1 string to render?
    stringcount 1 eq {
	/stringtxt strings aload pop def		% get the string 
	/stringw stringtxt mystringwidth pop neg def	% get the -width
	/stringh stringtxt stringheight exch pop neg def% get the -height

	% First do vertical calculations
	% hcenter rjustify vcenter vjustify 
	% vertical justification
	{ 0 stringh rmoveto } if 
	% vertical center
	{ 0 stringh 0.3571425 mul rmoveto } if  % not 0.5, so that
						% it looks nicer
	% Then do horizontal calculations
	% right justify
	{ stringw 0 rmoveto } if
	% center
	{ stringw 2.0 div 0 rmoveto } if
	% Draw the text
	stringtxt overbarshow
    } {
	% More than one line, compute bounding box for the text

	% vertical height, don't use the actual hieght of the characters
	% assume that the user wants to make the baselines line up with two
	% text boxes placed side by side
	/stringh stringcount spacing mul neg def
	% Now figure out horizontal size, this amounts to keeping track
	% of the longest string
	/stringw 0.0 def
	strings {
	    mystringwidth pop
	    dup stringw gt {
		/stringw exch def
	    } {
		pop
	    } ifelse
	} forall
	/stringw stringw neg def 	% get the -width
	
	% First do vertical calculations
	% hcenter rjustify vcenter vjustify 
	% vertical justification
	{ 0 stringh fontsize add rmoveto } if 
	% vertical center
	{ 0 stringh 0.5 mul rmoveto } if 
	% Then do horizontal calculations
	% right justify
	{ stringw 0 rmoveto } if
	% center
	{ stringw 2.0 div 0 rmoveto } if
	% now move up to the first line and begin rendering
	0 stringcount 1 sub spacing mul rmoveto
	strings {
	    gsave		% Save starting point
	    overbarshow		% render the text
	    grestore
	    0 spacing neg rmoveto
	} forall
    } ifelse
    grestore 	% Restore old state
} bind def


%%EndProlog
%%Page: 1 1
/gEDAFont ISOLatin1Extended /Helvetica RE
2 setlinecap
0.072000 0.072000 scale
1.000 1.000 1.000 setrgbcolor
8500 11000 0 0 fbox
7485 500 translate 90 rotate
0.588235 0.588235 scale
-40000 -40000 translate
gsave
0.400 0.400 0.400 setrgbcolor
40000 40000 57000 40000 10 line
57000 40000 57000 51000 10 line
57000 51000 40000 51000 10 line
40000 51000 40000 40000 10 line
52900 40600 52900 40000 10 line
gsave
false false false false 208.000000 [(FILE:) ] 0 49500 40400 144.444443 text
grestore
gsave
false false false false 208.000000 [(REVISION:) ] 0 53000 40400 144.444443 text
grestore
gsave
false false false false 208.000000 [(DRAWN BY: ) ] 0 53000 40100 144.444443 text
grestore
gsave
false false false false 208.000000 [(PAGE) ] 0 49500 40100 144.444443 text
grestore
gsave
false false false false 208.000000 [(OF) ] 0 51200 40100 144.444443 text
grestore
gsave
false false false false 208.000000 [(TITLE) ] 0 49500 40700 144.444443 text
grestore
49400 40000 57000 40000 10 line
57000 40000 57000 41400 10 line
57000 41400 49400 41400 10 line
49400 41400 49400 40000 10 line
49400 40600 57000 40600 10 line
grestore
gsave
0.000 0.000 0.000 setrgbcolor
49900 45100 49600 45100 10 line
gsave
false true false false 208.000000 [(7) ] 0 49850 45125 144.444443 text
grestore
gsave
0.000 0.545 0.000 setrgbcolor
false false true false 208.000000 [(P3) ] 0 50000 45100 144.444443 text
grestore
49900 45400 49600 45400 10 line
gsave
false true false false 208.000000 [(6) ] 0 49850 45425 144.444443 text
grestore
gsave
0.000 0.545 0.000 setrgbcolor
false false true false 208.000000 [(P2) ] 0 50000 45400 144.444443 text
grestore
49900 45700 49600 45700 10 line
gsave
false true false false 208.000000 [(5) ] 0 49850 45725 144.444443 text
grestore
gsave
0.000 0.545 0.000 setrgbcolor
false false true false 208.000000 [(P1) ] 0 50000 45700 144.444443 text
grestore
49900 46000 49600 46000 10 line
gsave
false true false false 208.000000 [(4) ] 0 49850 46025 144.444443 text
grestore
gsave
0.000 0.545 0.000 setrgbcolor
false false true false 208.000000 [(P0) ] 0 50000 46000 144.444443 text
grestore
49900 46300 49600 46300 10 line
gsave
false true false false 208.000000 [(3) ] 0 49850 46325 144.444443 text
grestore
gsave
0.000 0.545 0.000 setrgbcolor
false false true false 208.000000 [(A2) ] 0 50000 46300 144.444443 text
grestore
49900 46600 49600 46600 10 line
gsave
false true false false 208.000000 [(2) ] 0 49850 46625 144.444443 text
grestore
gsave
0.000 0.545 0.000 setrgbcolor
false false true false 208.000000 [(A1) ] 0 50000 46600 144.444443 text
grestore
49900 46900 49600 46900 10 line
gsave
false true false false 208.000000 [(1) ] 0 49850 46925 144.444443 text
grestore
gsave
0.000 0.545 0.000 setrgbcolor
false false true false 208.000000 [(A0) ] 0 50000 46900 144.444443 text
grestore
51700 45100 52000 45100 10 line
gsave
false false false false 208.000000 [(9) ] 0 51750 45125 144.444443 text
grestore
gsave
0.000 0.545 0.000 setrgbcolor
false true true false 208.000000 [(P4) ] 0 51600 45100 144.444443 text
grestore
51700 45400 52000 45400 10 line
gsave
false false false false 208.000000 [(10) ] 0 51750 45425 144.444443 text
grestore
gsave
0.000 0.545 0.000 setrgbcolor
false true true false 208.000000 [(P5) ] 0 51600 45400 144.444443 text
grestore
51700 45700 52000 45700 10 line
gsave
false false false false 208.000000 [(11) ] 0 51750 45725 144.444443 text
grestore
gsave
0.000 0.545 0.000 setrgbcolor
false true true false 208.000000 [(P6) ] 0 51600 45700 144.444443 text
grestore
51700 46000 52000 46000 10 line
gsave
false false false false 208.000000 [(12) ] 0 51750 46025 144.444443 text
grestore
gsave
0.000 0.545 0.000 setrgbcolor
false true true false 208.000000 [(P7) ] 0 51600 46000 144.444443 text
grestore
51735 46300 25 0 360 10 darc
51760 46300 52000 46300 10 line
gsave
false false false false 208.000000 [(13) ] 0 51750 46325 144.444443 text
grestore
gsave
0.000 0.545 0.000 setrgbcolor
false true true false 208.000000 [(\\_INT) ] 0 51600 46300 144.444443 text
grestore
51700 46600 52000 46600 10 line
gsave
false false false false 208.000000 [(14) ] 0 51750 46625 144.444443 text
grestore
gsave
0.000 0.545 0.000 setrgbcolor
false true true false 208.000000 [(SCL) ] 0 51600 46600 144.444443 text
grestore
51700 46900 52000 46900 10 line
gsave
false false false false 208.000000 [(15) ] 0 51750 46925 144.444443 text
grestore
gsave
0.000 0.545 0.000 setrgbcolor
false true true false 208.000000 [(SDA) ] 0 51600 46900 144.444443 text
grestore
50800 44200 50800 43900 10 line
gsave
false false false true 208.000000 [(8) ] 0 50825 44150 144.444443 text
grestore
gsave
0.000 0.545 0.000 setrgbcolor
false false true false 208.000000 [(GND) ] 90 50800 44300 144.444443 text
grestore
50800 47800 50800 48100 10 line
gsave
false false false false 208.000000 [(16) ] 0 50825 47850 144.444443 text
grestore
gsave
0.000 0.545 0.000 setrgbcolor
false true true false 208.000000 [(Vcc) ] 90 50800 47700 144.444443 text
grestore
0.000 0.545 0.000 setrgbcolor
49900 44200 51700 44200 10 line
51700 44200 51700 47800 10 line
51700 47800 49900 47800 10 line
49900 47800 49900 44200 10 line
gsave
1.000 0.000 0.000 setrgbcolor
true false true false 208.000000 [(PCF8574) ] 0 50800 46000 144.444443 text
grestore
grestore
gsave
0.000 0.000 0.000 setrgbcolor
false false false false 208.000000 [(U1) ] 0 51750 47850 144.444443 text
grestore
0.000 0.000 1.000 setrgbcolor
49600 46900 49200 46900 10 line
49200 46900 49200 46300 10 line
49200 46300 49600 46300 10 line
49600 46600 49200 46600 10 line
gsave
0.000 0.000 0.000 setrgbcolor
48900 47000 48900 47200 10 line
0.000 0.545 0.000 setrgbcolor
48750 47200 49050 47200 10 line
gsave
0.000 0.545 0.000 setrgbcolor
false false false false 208.000000 [(Vcc) ] 0 48775 47250 144.444443 text
grestore
grestore
48900 47000 48900 46600 10 line
48900 46600 49200 46600 10 line
gsave
0.000 0.000 0.000 setrgbcolor
50800 43400 50800 43600 10 line
0.000 0.545 0.000 setrgbcolor
50700 43400 50900 43400 10 line
50755 43350 50845 43350 10 line
50780 43310 50820 43310 10 line
grestore
50800 43900 50800 43600 10 line
gsave
0.000 0.000 0.000 setrgbcolor
50800 49000 50800 49200 10 line
0.000 0.545 0.000 setrgbcolor
50650 49200 50950 49200 10 line
gsave
0.000 0.545 0.000 setrgbcolor
false false false false 208.000000 [(Vcc) ] 0 50675 49250 144.444443 text
grestore
grestore
50800 49000 50800 48100 10 line
gsave
0.000 0.000 0.000 setrgbcolor
43000 49000 42700 49000 10 line
gsave
0.000 0.000 0.000 setrgbcolor
false false false false 208.000000 [(1) ] 0 42800 49050 144.444443 text
grestore
gsave
0.000 0.545 0.000 setrgbcolor
false true false false 208.000000 [(GND) ] 0 42650 49000 144.444443 text
grestore
43000 48600 42700 48600 10 line
gsave
0.000 0.000 0.000 setrgbcolor
false false false false 208.000000 [(2) ] 0 42800 48650 144.444443 text
grestore
gsave
0.000 0.545 0.000 setrgbcolor
false true false false 208.000000 [(Vcc) ] 0 42650 48600 144.444443 text
grestore
43000 48200 42700 48200 10 line
gsave
0.000 0.000 0.000 setrgbcolor
false false false false 208.000000 [(3) ] 0 42800 48250 144.444443 text
grestore
gsave
0.000 0.545 0.000 setrgbcolor
false true false false 208.000000 [(Vo) ] 0 42650 48200 144.444443 text
grestore
43000 47800 42700 47800 10 line
gsave
0.000 0.000 0.000 setrgbcolor
false false false false 208.000000 [(4) ] 0 42800 47850 144.444443 text
grestore
gsave
0.000 0.545 0.000 setrgbcolor
false true false false 208.000000 [(RS) ] 0 42650 47800 144.444443 text
grestore
43000 47400 42700 47400 10 line
gsave
0.000 0.000 0.000 setrgbcolor
false false false false 208.000000 [(5) ] 0 42800 47450 144.444443 text
grestore
gsave
0.000 0.545 0.000 setrgbcolor
false true false false 208.000000 [(R/\\_W\\_) ] 0 42650 47400 144.444443 text
grestore
43000 47000 42700 47000 10 line
gsave
0.000 0.000 0.000 setrgbcolor
false false false false 208.000000 [(6) ] 0 42800 47050 144.444443 text
grestore
gsave
0.000 0.545 0.000 setrgbcolor
false true false false 208.000000 [(E) ] 0 42650 47000 144.444443 text
grestore
43000 46600 42700 46600 10 line
gsave
0.000 0.000 0.000 setrgbcolor
false false false false 208.000000 [(7) ] 0 42800 46650 144.444443 text
grestore
gsave
0.000 0.545 0.000 setrgbcolor
false true false false 208.000000 [(D0) ] 0 42650 46600 144.444443 text
grestore
43000 46200 42700 46200 10 line
gsave
0.000 0.000 0.000 setrgbcolor
false false false false 208.000000 [(8) ] 0 42800 46250 144.444443 text
grestore
gsave
0.000 0.545 0.000 setrgbcolor
false true false false 208.000000 [(D1) ] 0 42650 46200 144.444443 text
grestore
43000 45800 42700 45800 10 line
gsave
0.000 0.000 0.000 setrgbcolor
false false false false 208.000000 [(9) ] 0 42800 45850 144.444443 text
grestore
gsave
0.000 0.545 0.000 setrgbcolor
false true false false 208.000000 [(D2) ] 0 42650 45800 144.444443 text
grestore
43000 45400 42700 45400 10 line
gsave
0.000 0.000 0.000 setrgbcolor
false false false false 208.000000 [(10) ] 0 42800 45450 144.444443 text
grestore
gsave
0.000 0.545 0.000 setrgbcolor
false true false false 208.000000 [(D3) ] 0 42650 45400 144.444443 text
grestore
43000 45000 42700 45000 10 line
gsave
0.000 0.000 0.000 setrgbcolor
false false false false 208.000000 [(11) ] 0 42800 45050 144.444443 text
grestore
gsave
0.000 0.545 0.000 setrgbcolor
false true false false 208.000000 [(D4) ] 0 42650 45000 144.444443 text
grestore
43000 44600 42700 44600 10 line
gsave
0.000 0.000 0.000 setrgbcolor
false false false false 208.000000 [(12) ] 0 42800 44650 144.444443 text
grestore
gsave
0.000 0.545 0.000 setrgbcolor
false true false false 208.000000 [(D5) ] 0 42650 44600 144.444443 text
grestore
43000 44200 42700 44200 10 line
gsave
0.000 0.000 0.000 setrgbcolor
false false false false 208.000000 [(13) ] 0 42800 44250 144.444443 text
grestore
gsave
0.000 0.545 0.000 setrgbcolor
false true false false 208.000000 [(D6) ] 0 42650 44200 144.444443 text
grestore
43000 43800 42700 43800 10 line
gsave
0.000 0.000 0.000 setrgbcolor
false false false false 208.000000 [(14) ] 0 42800 43850 144.444443 text
grestore
gsave
0.000 0.545 0.000 setrgbcolor
false true false false 208.000000 [(D7) ] 0 42650 43800 144.444443 text
grestore
43000 43400 42700 43400 10 line
gsave
0.000 0.000 0.000 setrgbcolor
false false false false 208.000000 [(15) ] 0 42800 43450 144.444443 text
grestore
gsave
0.000 0.545 0.000 setrgbcolor
false true false false 208.000000 [(LED+) ] 0 42650 43400 144.444443 text
grestore
43000 43000 42700 43000 10 line
gsave
0.000 0.000 0.000 setrgbcolor
false false false false 208.000000 [(16) ] 0 42800 43050 144.444443 text
grestore
gsave
0.000 0.545 0.000 setrgbcolor
false true false false 208.000000 [(LED-) ] 0 42650 43000 144.444443 text
grestore
0.000 0.545 0.000 setrgbcolor
42200 42800 42700 42800 10 line
42700 42800 42700 49200 10 line
42700 49200 42200 49200 10 line
42200 49200 42200 42800 10 line
gsave
0.000 0.545 0.000 setrgbcolor
false true false false 260.000000 [(HD44780) ] 90 42150 49200 180.555557 text
grestore
grestore
gsave
0.000 0.000 0.000 setrgbcolor
false true false true 260.000000 [(X1) ] 270 42100 42800 180.555557 text
grestore
gsave
0.000 0.000 0.000 setrgbcolor
44800 48800 44800 49000 10 line
0.000 0.545 0.000 setrgbcolor
44700 48800 44900 48800 10 line
44755 48750 44845 48750 10 line
44780 48710 44820 48710 10 line
grestore
43000 49000 44800 49000 10 line
43000 48600 50800 48600 10 line
gsave
0.000 0.000 0.000 setrgbcolor
43900 49600 44000 49600 10 line
gsave
0.000 0.000 1.000 setrgbcolor
false true true false 208.000000 [(1) ] 0 44000 49525 144.444443 text
grestore
43600 49600 43500 49600 10 line
gsave
0.000 0.000 1.000 setrgbcolor
false false true false 208.000000 [(3) ] 0 43525 49525 144.444443 text
grestore
0.000 0.545 0.000 setrgbcolor
43900 49600 43875 49525 10 line
43875 49525 43825 49675 10 line
43825 49675 43775 49525 10 line
43775 49525 43725 49675 10 line
43725 49675 43675 49525 10 line
43675 49525 43625 49675 10 line
43625 49675 43600 49600 10 line
0.000 0.000 0.000 setrgbcolor
43700 49400 43700 49300 10 line
gsave
0.000 0.000 1.000 setrgbcolor
false false false false 208.000000 [(2) ] 0 43735 49305 144.444443 text
grestore
1.000 0.000 0.000 setrgbcolor
43700 49400 43700 49525 10 line
43700 49525 43750 49475 10 line
43700 49525 43650 49475 10 line
grestore
gsave
0.000 0.000 0.000 setrgbcolor
true false true false 208.000000 [(R1) ] 0 43480 49680 144.444443 text
grestore
gsave
0.000 0.000 0.000 setrgbcolor
false true true false 208.000000 [(10k) ] 0 44100 49700 144.444443 text
grestore
43700 49300 43700 48200 10 line
43700 48200 43000 48200 10 line
43500 49600 43400 49600 10 line
43400 49600 43400 49000 10 line
44000 49600 44200 49600 10 line
44200 49600 44200 49000 10 line
43000 47800 47000 47800 10 line
47000 47800 47000 46000 10 line
47000 46000 49600 46000 10 line
49600 45700 46600 45700 10 line
46600 45700 46600 47400 10 line
46600 47400 43000 47400 10 line
49600 45400 46200 45400 10 line
46200 45400 46200 47000 10 line
46200 47000 43000 47000 10 line
52000 45100 52500 45100 10 line
52500 45100 52500 43000 10 line
52500 43000 46200 43000 10 line
46200 43000 46200 45000 10 line
46200 45000 43000 45000 10 line
52000 45400 52800 45400 10 line
52800 45400 52800 42700 10 line
52800 42700 45900 42700 10 line
45900 42700 45900 44600 10 line
45900 44600 43000 44600 10 line
52000 45700 53100 45700 10 line
53100 42400 53100 45700 10 line
53100 42400 45600 42400 10 line
45600 42400 45600 44200 10 line
45600 44200 43000 44200 10 line
52000 46000 53400 46000 10 line
53400 42100 53400 46000 10 line
53400 42100 45300 42100 10 line
45300 42100 45300 43800 10 line
45300 43800 43000 43800 10 line
gsave
0.000 0.000 0.000 setrgbcolor
53600 48500 53600 48200 10 line
gsave
0.000 0.000 0.000 setrgbcolor
false false false false 208.000000 [(3) ] 270 53550 49650 144.444443 text
grestore
53900 48500 53900 48200 10 line
gsave
0.000 0.000 0.000 setrgbcolor
false false false false 208.000000 [(2) ] 270 53850 49650 144.444443 text
grestore
53300 48500 53300 48200 10 line
gsave
0.000 0.000 0.000 setrgbcolor
false false false false 208.000000 [(4) ] 270 53250 49650 144.444443 text
grestore
0.000 0.545 0.000 setrgbcolor
53900 48500 53900 49400 10 line
53600 48500 53600 49400 10 line
53300 48500 53300 49400 10 line
0.000 0.000 0.000 setrgbcolor
54200 48500 54200 48200 10 line
gsave
0.000 0.000 0.000 setrgbcolor
false false false false 208.000000 [(1) ] 270 54150 49650 144.444443 text
grestore
0.000 0.545 0.000 setrgbcolor
54200 48500 54200 49400 10 line
53100 49400 54400 49400 10 line
54400 49400 54400 49900 10 line
54400 49900 53100 49900 10 line
53100 49900 53100 49400 10 line
grestore
gsave
0.000 0.000 0.000 setrgbcolor
false false false false 260.000000 [(CONN1) ] 270 54500 49900 180.555557 text
grestore
gsave
0.000 0.000 0.000 setrgbcolor
54200 48000 54200 48200 10 line
0.000 0.545 0.000 setrgbcolor
54100 48000 54300 48000 10 line
54155 47950 54245 47950 10 line
54180 47910 54220 47910 10 line
grestore
50800 48600 53000 48600 10 line
53000 48600 53000 48000 10 line
53000 48000 53900 48000 10 line
53900 48000 53900 48200 10 line
53600 48200 53600 46900 10 line
53600 46900 52000 46900 10 line
53300 48200 53300 46600 10 line
53300 46600 52000 46600 10 line
gsave
0.000 0.000 0.000 setrgbcolor
44500 42000 44500 41900 10 line
44500 41400 44500 41500 10 line
0.000 0.545 0.000 setrgbcolor
44500 41800 50 0 360 10 darc
44500 41600 50 0 360 10 darc
44400 41500 44600 41500 10 line
44600 41500 44600 41900 10 line
44600 41900 44400 41900 10 line
44400 41900 44400 41500 10 line
44525 41500 44600 41575 10 line
grestore
gsave
0.000 0.000 0.000 setrgbcolor
false false false false 260.000000 [(J1) ] 0 44700 41900 180.555557 text
grestore
gsave
0.000 0.000 0.000 setrgbcolor
45000 41200 45000 41400 10 line
0.000 0.545 0.000 setrgbcolor
44850 41400 45150 41400 10 line
gsave
0.000 0.545 0.000 setrgbcolor
false false false false 208.000000 [(Vcc) ] 0 44875 41450 144.444443 text
grestore
grestore
43000 43400 44500 43400 10 line
44500 43400 44500 42000 10 line
44500 41400 44500 41100 10 line
44500 41100 45000 41100 10 line
45000 41100 45000 41200 10 line
gsave
0.000 0.545 0.000 setrgbcolor
false false false false 208.000000 [(SainSmart I2C LCD Adapter) ] 0 50200 40900 144.444443 text
grestore
gsave
0.000 0.545 0.000 setrgbcolor
false false false false 208.000000 [(Edward Comer) ] 0 54100 40200 144.444443 text
grestore
gsave
0.000 0.545 0.000 setrgbcolor
false false false false 208.000000 [(sainsmarti2clcd.sch) ] 0 50100 40400 144.444443 text
grestore
gsave
0.000 0.545 0.000 setrgbcolor
false false false false 208.000000 [(1) ] 0 50000 40100 144.444443 text
grestore
gsave
0.000 0.545 0.000 setrgbcolor
false false false false 208.000000 [(1) ] 0 51700 40100 144.444443 text
grestore
43000 43000 45000 43000 10 line
45000 43000 45000 43500 10 line
45000 43500 49000 43500 10 line
49000 43500 49000 45100 10 line
49000 45100 49600 45100 10 line
gsave
0.000 0.545 0.000 setrgbcolor
false false false false 208.000000 [(NOTE: This is reverse engineered and I may have missed some resistors on the hidden back side.) ] 0 49400 41600 144.444443 text
grestore
0.627 0.125 0.941 setrgbcolor
newpath
49200 46600
25
0 360 arc
fill
newpath
49200 46600
25
0 360 arc
fill
newpath
49200 46600
25
0 360 arc
fill
newpath
49200 46600
25
0 360 arc
fill
newpath
49200 46600
25
0 360 arc
fill
newpath
49200 46600
25
0 360 arc
fill
newpath
50800 48600
25
0 360 arc
fill
newpath
50800 48600
25
0 360 arc
fill
newpath
43400 49000
25
0 360 arc
fill
newpath
44200 49000
25
0 360 arc
fill
newpath
50800 48600
25
0 360 arc
fill
newpath
50800 48600
25
0 360 arc
fill
newpath
43400 49000
25
0 360 arc
fill
newpath
43400 49000
25
0 360 arc
fill
newpath
44200 49000
25
0 360 arc
fill
newpath
44200 49000
25
0 360 arc
fill
newpath
50800 48600
25
0 360 arc
fill
newpath
50800 48600
25
0 360 arc
fill
showpage
%%End
